<svg id="_04" data-name="04" xmlns="http://www.w3.org/2000/svg" width="68.156" height="73" viewBox="0 0 68.156 73">
  <defs>
    <style>
      .cls-1 {
        fill: #fb5551;
      }

      .cls-1, .cls-2 {
        fill-rule: evenodd;
      }

      .cls-2 {
        fill: #e2e6f4;
        stroke: #5b7dc7;
        stroke-width: 2px;
      }
    </style>
  </defs>
  <path id="Rounded_Rectangle_511_copy_2" data-name="Rounded Rectangle 511 copy 2" class="cls-1" d="M840,83a2,2,0,0,1,2,2v5a2,2,0,0,1-4,0V85A2,2,0,0,1,840,83Zm34.9,59.75a2,2,0,0,1-2.732.732l-4.33-2.5a2,2,0,0,1,2-3.464l4.33,2.5A2,2,0,0,1,874.9,142.75Zm-67.648.173a1.818,1.818,0,0,0,2.63.788l4.167-2.692a2.3,2.3,0,0,0,.7-2.942,1.818,1.818,0,0,0-2.63-.788l-4.167,2.692A2.3,2.3,0,0,0,807.249,142.923Z" transform="translate(-807 -83)"/>
  <path id="Ellipse_11_copy_2" data-name="Ellipse 11 copy 2" class="cls-2" d="M840.5,144a5.5,5.5,0,1,1-5.5,5.5A5.5,5.5,0,0,1,840.5,144Zm23-42a5.5,5.5,0,1,1-5.5,5.5A5.5,5.5,0,0,1,863.5,102Zm-46,0a5.5,5.5,0,1,1-5.5,5.5A5.5,5.5,0,0,1,817.5,102Z" transform="translate(-807 -83)"/>
</svg>
