<svg id="_02" data-name="02" xmlns="http://www.w3.org/2000/svg" width="13.5" height="2" viewBox="0 0 13.5 2">
  <defs>
    <style>
      .cls-1 {
        fill: #fb5551;
        fill-rule: evenodd;
      }
    </style>
  </defs>
  <path class="cls-1" d="M357.5,135.5H361v2h-3.5v-2Zm5,0H366v2h-3.5v-2Zm5,0H371v2h-3.5v-2Z" transform="translate(-357.5 -135.5)"/>
</svg>
