<?xml version="1.0" encoding="utf-8"?>
<!-- Generator: Adobe Illustrator 19.0.1, SVG Export Plug-In . SVG Version: 6.00 Build 0)  -->
<svg version="1.1" id="Layer_1" xmlns="http://www.w3.org/2000/svg" xmlns:xlink="http://www.w3.org/1999/xlink" x="0px" y="0px"
	 viewBox="0 0 62.5 62" style="enable-background:new 0 0 62.5 62;" xml:space="preserve">
<style type="text/css">
	.st0{fill-rule:evenodd;clip-rule:evenodd;fill:#FFFFFF;}
	.st1{fill-rule:evenodd;clip-rule:evenodd;fill:#F5B83E;}
	.st2{fill-rule:evenodd;clip-rule:evenodd;}
</style>
<path class="st0" d="M31.3,0c17.3,0,31.3,13.9,31.3,31c0,17.1-14,31-31.3,31C14,62,0,48.1,0,31C0,13.9,14,0,31.3,0z"/>
<path class="st1" d="M22.1,25.6h17.8c2.2,0,4,1.8,4,4v17.8c0,2.2-1.8,4-4,4H22.1c-2.2,0-4-1.8-4-4V29.6
	C18.1,27.4,19.9,25.6,22.1,25.6z"/>
<g>
	<g>
		<path class="st2" d="M39.5,10.4c0,0,1.8-1,1.6-1.4c-0.2-0.4-2,0.8-2,0.8s1.3-1.7,1-2c-0.3-0.3-1.8,1.8-1.8,1.8s0.2-1.9-0.2-2
			c-0.4-0.1-0.3,2-1,2.4c-0.7,0.4-1.2-0.6-1.8-0.6c-0.6,0-0.5,0.2-0.2,0.4c0.3,0.2,0.5,0.1,0.6,0.8c0.1,0.7,0.8,1.1,0.8,1.4
			c0,0.3-1.7,5.2-2.2,6.2c-0.5,1-1.5,2.5-2,2.6c-0.5,0.1-1.8,1-1.8,1.2c0,0.2-0.5,0.3-0.8,0.2c-0.3-0.1-0.4-1.2-0.4-1.2
			s0.5-0.4,0.6-0.6c0.1-0.2,0.2-1.1-0.2-2c-0.4-0.9-2-2.8-2.2-3c-0.2-0.2-2.1,0.1-3.4,1.8c-1.3,1.7-0.4,3.4,0.6,3.8
			c1,0.4,1.4,1.3,1.4,1.8c0,0.5,0,1,0,1s-1,0.8-1.6,1c-0.6,0.2-1.6,0.5-2.2,2.8c-0.6,2.3-0.9,5.7-1,6.2c-0.1,0.5-0.4,0.7,0,0.8
			c0,0-0.1,6.3-0.2,7.6c-0.1,1.3-0.4,3.1,0.4,3.6c0.8,0.5,1.8,0.6,1.8,0.6l-0.8,5h4.6c0,0,0.1-2.1,0.8-3.8c0.7-1.7,1.6-3,1.6-3
			l0.2,0.2c0,0,1,5.3,1.8,6.6h4.8l-0.8-8.6l-0.4-2.4c0,0,1.4-0.4,1.4-0.8c0-0.4-1.3-2.9-1.6-5.2c-0.3-2.3-0.7-3.6-0.2-7.2
			c0.5-3.6,1.4-6.6,1.8-8.2c0.4-1.6,1.2-4.6,1.4-5.4c0.2-0.8,1.1-2.5,1.8-2.6c0.7-0.1,1.3-0.2,1.4-0.4
			C41.2,10.4,39.5,10.4,39.5,10.4z M25.3,35.6c-0.3,0.5-0.9,1.6-1,2.2c-0.1,0.6,0.3,0.7,0.2,1.6c-0.1,0.9-1.1,5.2-1.2,6.6
			c0,0-1-0.5-1.2-0.8c-0.2-0.3-0.1-0.7,0-1c0.1-0.3,0.5-0.1,0.6,0c0.1,0.1,0.1,0.8,0.4,0.6c0.3-0.2,0.1-0.5,0-1
			c-0.1-0.5-0.2-1.1-0.4-1.4c-0.2-0.3-0.2-0.4-0.2-0.4s1.1-2.3,1.2-3.8c0.1-1.5,0.4-2.8,0.4-2.8h0.6l0.2-0.8
			C24.9,34.6,25.6,35.1,25.3,35.6z"/>
	</g>
</g>
</svg>
