<?xml version="1.0" encoding="utf-8"?>
<!-- Generator: Adobe Illustrator 19.0.1, SVG Export Plug-In . SVG Version: 6.00 Build 0)  -->
<svg version="1.1" id="Layer_1" xmlns="http://www.w3.org/2000/svg" xmlns:xlink="http://www.w3.org/1999/xlink" x="0px" y="0px"
	 viewBox="0 0 32.9 33" style="enable-background:new 0 0 32.9 33;" xml:space="preserve">
<style type="text/css">
	.st0{fill-rule:evenodd;clip-rule:evenodd;fill:#385EB1;}
	.st1{fill:#FFFFFF;}
</style>
<path class="st0" d="M16.5,0.8c8.7,0,15.8,7.1,15.8,15.8s-7.1,15.7-15.8,15.7c-8.7,0-15.8-7.1-15.8-15.7S7.8,0.8,16.5,0.8z"/>
<path class="st1" d="M8.7,23.1h3.1l0.2-9.1H8.9L8.7,23.1z M26,14.7c0-0.8-0.7-1.5-1.5-1.5h-4.9l0.8-3.5c0-0.1,0-0.2,0-0.2
	c0-0.3-0.1-0.6-0.3-0.8l-0.8-0.8l-5.2,5c-0.3,0.2-0.5,0.6-0.5,1.1l-0.2,7.6c0,0.8,0.7,1.5,1.5,1.5h7c0.6,0,1.2-0.4,1.4-0.9l2.4-5.4
	c0.1-0.2,0.1-0.4,0.1-0.5L26,14.7L26,14.7C26,14.8,26,14.7,26,14.7z"/>
</svg>
