<svg id="Група_1" data-name="Група 1" xmlns="http://www.w3.org/2000/svg" width="72" height="51.18" viewBox="0 0 72 51.18">
  <defs>
    <style>
      .cls-1 {
        fill: #fb5551;
      }

      .cls-1, .cls-2 {
        fill-rule: evenodd;
      }

      .cls-2 {
        fill: #e2e6f4;
      }
    </style>
  </defs>
  <path id="Forma_1" data-name="Forma 1" class="cls-1" d="M203,2033.4a25.6,25.6,0,1,0,25.6,25.6A25.651,25.651,0,0,0,203,2033.4Zm0,48.2a22.6,22.6,0,0,1-11.157-42.25A13.538,13.538,0,0,0,203,2060.5,10.55,10.55,0,0,1,203,2081.6Zm11.157-2.95A13.538,13.538,0,0,0,203,2057.5a10.55,10.55,0,0,1,0-21.1A22.6,22.6,0,0,1,214.157,2078.65ZM203,2042.5a4.5,4.5,0,1,0,4.5,4.5A4.506,4.506,0,0,0,203,2042.5Zm0,6a1.5,1.5,0,1,1,1.5-1.5A1.5,1.5,0,0,1,203,2048.5Zm0,18a4.5,4.5,0,1,0,4.5,4.5A4.506,4.506,0,0,0,203,2066.5Zm0,6a1.5,1.5,0,1,1,1.5-1.5A1.5,1.5,0,0,1,203,2072.5Z" transform="translate(-167 -2033.41)"/>
  <path id="Ellipse_13_copy_3" data-name="Ellipse 13 copy 3" class="cls-2" d="M169.5,2057a2.5,2.5,0,1,1-2.5,2.5A2.5,2.5,0,0,1,169.5,2057Zm67,0a2.5,2.5,0,1,1-2.5,2.5A2.5,2.5,0,0,1,236.5,2057Z" transform="translate(-167 -2033.41)"/>
</svg>
