<?xml version="1.0" encoding="utf-8"?>
<!-- Generator: Adobe Illustrator 19.0.1, SVG Export Plug-In . SVG Version: 6.00 Build 0)  -->
<svg version="1.1" id="Layer_1" xmlns="http://www.w3.org/2000/svg" xmlns:xlink="http://www.w3.org/1999/xlink" x="0px" y="0px"
	 viewBox="0 0 40 39.7" style="enable-background:new 0 0 40 39.7;" xml:space="preserve">
<style type="text/css">
	.st0{fill:#fff;}
</style>
<path class="st0" d="M24.5,26.3c-0.9-0.1-0.8-2.5-0.8-2.5s2.6-2.5,3.2-5.8c1.5,0,2.5-3.5,1-4.8c0.1-1.3,2.1-10.3-7.3-10.3
	c-9.5,0-7.8,9-7.7,10.3c-1.5,1.2-0.7,4.8,0.8,4.8c0.5,3.3,3,5.8,3,5.8s-0.1,2.3-0.9,2.5c-2.8,0.4-13.4,5-13.5,9.9H20h17.7
	C37.7,31.2,27.3,26.7,24.5,26.3z"/>
</svg>
